
{
    "title":"carahdras",
    "slides":[
        {
            "image_file_name":"CarhengeNebraska.jpg",
            "image_path":"C:\\Users\\Benito\\Documents\\CSE219\\HW3\\SlideshowMaker\\SlideshowMaker\\images\\slide_show_images\\",
            "caption":"THE RING"
        },
        {
            "image_file_name":"SignalHillNewfoundland.jpg",
            "image_path":"C:\\Users\\Benito\\Documents\\CSE219\\HW3\\SlideshowMaker\\SlideshowMaker\\images\\slide_show_images\\",
            "caption":"ENTER CAPTION"
        }
    ]
}